%YAML 1.1
%TAG !u! tag:unity3d.com,2011:
--- !u!114 &11400000
MonoBehaviour:
  m_ObjectHideFlags: 0
  m_PrefabParentObject: {fileID: 0}
  m_PrefabInternal: {fileID: 0}
  m_GameObject: {fileID: 0}
  m_Enabled: 1
  m_EditorHideFlags: 0
  m_Script: {fileID: -655325113, guid: 6fa733cee29e1c54b8eb76455f80ead9, type: 3}
  m_Name: Sprite settings
  m_EditorClassIdentifier: 
  lockedSprite: {fileID: 21300172, guid: fc2055379b1e18642b6080f8271889f9, type: 3}
  numberIcon: {fileID: 0}
  plusIcon: {fileID: 0}
  despawnerSprite: {fileID: 0}
  despawnerOffset: 0
  whiteBackground: {fileID: 169638, guid: 9a5210ce860f14b469ac4c4ded6d2ec7, type: 2}
  blackBackground: {fileID: 134998, guid: 167b751c2fe9e054b8c74447a60b7c06, type: 2}
  ingridientDespawnerSprite: {fileID: 0}
  typeToSprites:
  - name: HammerBooster
    sprite: {fileID: 21300176, guid: fc2055379b1e18642b6080f8271889f9, type: 3}
  - name: HandBooster
    sprite: {fileID: 21300174, guid: fc2055379b1e18642b6080f8271889f9, type: 3}
  - name: PlusFiveBooster
    sprite: {fileID: 21300170, guid: fc2055379b1e18642b6080f8271889f9, type: 3}
  - name: ScoreAim
    sprite: {fileID: 21300000, guid: 0b6e9a68f062bbb4891638110c41e3a2, type: 3}
  tokenSprites:
  - color: 1
    sprite: {fileID: 21300428, guid: 12b899fa8ee8b7f4b92a74630c9e5888, type: 3}
    particlePrefab: {fileID: 105512, guid: 50bf1988409294749bd4b7739d27044b, type: 2}
  - color: 2
    sprite: {fileID: 21300420, guid: 12b899fa8ee8b7f4b92a74630c9e5888, type: 3}
    particlePrefab: {fileID: 182538, guid: ac71e64ae95e02147870997e51f4f462, type: 2}
  - color: 3
    sprite: {fileID: 21300422, guid: 12b899fa8ee8b7f4b92a74630c9e5888, type: 3}
    particlePrefab: {fileID: 153520, guid: b463adfe047474e46ae4d986083bfb40, type: 2}
  - color: 4
    sprite: {fileID: 21300418, guid: 12b899fa8ee8b7f4b92a74630c9e5888, type: 3}
    particlePrefab: {fileID: 158720, guid: 5728f80e9f7ac6841a63ed9febd7e16d, type: 2}
  - color: 5
    sprite: {fileID: 21300424, guid: 12b899fa8ee8b7f4b92a74630c9e5888, type: 3}
    particlePrefab: {fileID: 118092, guid: d69c930494599944ca5cfe4c3ec4b76f, type: 2}
  - color: 6
    sprite: {fileID: 21300426, guid: 12b899fa8ee8b7f4b92a74630c9e5888, type: 3}
    particlePrefab: {fileID: 186060, guid: 5f2f57ab932e5b1438bf8ce1e5503a0d, type: 2}
  bonusSprites:
  - color: 1
    shape: 96
    sprite: {fileID: 21300376, guid: 12b899fa8ee8b7f4b92a74630c9e5888, type: 3}
    particlePrefab: {fileID: 139310, guid: a60bced311a3fdb4b968b203978b7dba, type: 2}
  - color: 2
    shape: 96
    sprite: {fileID: 21300368, guid: 12b899fa8ee8b7f4b92a74630c9e5888, type: 3}
    particlePrefab: {fileID: 139310, guid: 29a609393a29eb042bf3a889c2a4a316, type: 2}
  - color: 3
    shape: 96
    sprite: {fileID: 21300370, guid: 12b899fa8ee8b7f4b92a74630c9e5888, type: 3}
    particlePrefab: {fileID: 139310, guid: 26ec2846aea01d54b92df93eb5d6bfb9, type: 2}
  - color: 4
    shape: 96
    sprite: {fileID: 21300366, guid: 12b899fa8ee8b7f4b92a74630c9e5888, type: 3}
    particlePrefab: {fileID: 139310, guid: b01e0ed04f622314385711bacf99ac7b, type: 2}
  - color: 5
    shape: 96
    sprite: {fileID: 21300372, guid: 12b899fa8ee8b7f4b92a74630c9e5888, type: 3}
    particlePrefab: {fileID: 139310, guid: b30205373e98df64facf2e6e7cd6b63f, type: 2}
  - color: 6
    shape: 96
    sprite: {fileID: 21300374, guid: 12b899fa8ee8b7f4b92a74630c9e5888, type: 3}
    particlePrefab: {fileID: 139310, guid: 1cd477fe8e224474f8c07d61c70c8836, type: 2}
  - color: 1
    shape: 4
    sprite: {fileID: 21300410, guid: 12b899fa8ee8b7f4b92a74630c9e5888, type: 3}
    particlePrefab: {fileID: 0}
  - color: 2
    shape: 4
    sprite: {fileID: 21300402, guid: 12b899fa8ee8b7f4b92a74630c9e5888, type: 3}
    particlePrefab: {fileID: 0}
  - color: 3
    shape: 4
    sprite: {fileID: 21300404, guid: 12b899fa8ee8b7f4b92a74630c9e5888, type: 3}
    particlePrefab: {fileID: 0}
  - color: 4
    shape: 4
    sprite: {fileID: 21300400, guid: 12b899fa8ee8b7f4b92a74630c9e5888, type: 3}
    particlePrefab: {fileID: 0}
  - color: 5
    shape: 4
    sprite: {fileID: 21300406, guid: 12b899fa8ee8b7f4b92a74630c9e5888, type: 3}
    particlePrefab: {fileID: 0}
  - color: 6
    shape: 4
    sprite: {fileID: 21300408, guid: 12b899fa8ee8b7f4b92a74630c9e5888, type: 3}
    particlePrefab: {fileID: 0}
  - color: 1
    shape: 8
    sprite: {fileID: 21300398, guid: 12b899fa8ee8b7f4b92a74630c9e5888, type: 3}
    particlePrefab: {fileID: 0}
  - color: 2
    shape: 8
    sprite: {fileID: 21300390, guid: 12b899fa8ee8b7f4b92a74630c9e5888, type: 3}
    particlePrefab: {fileID: 0}
  - color: 3
    shape: 8
    sprite: {fileID: 21300392, guid: 12b899fa8ee8b7f4b92a74630c9e5888, type: 3}
    particlePrefab: {fileID: 0}
  - color: 4
    shape: 8
    sprite: {fileID: 21300388, guid: 12b899fa8ee8b7f4b92a74630c9e5888, type: 3}
    particlePrefab: {fileID: 0}
  - color: 5
    shape: 4
    sprite: {fileID: 21300394, guid: 12b899fa8ee8b7f4b92a74630c9e5888, type: 3}
    particlePrefab: {fileID: 0}
  - color: 6
    shape: 8
    sprite: {fileID: 21300396, guid: 12b899fa8ee8b7f4b92a74630c9e5888, type: 3}
    particlePrefab: {fileID: 0}
