%YAML 1.1
%TAG !u! tag:unity3d.com,2011:
--- !u!1 &136582
GameObject:
  m_ObjectHideFlags: 0
  m_PrefabParentObject: {fileID: 0}
  m_PrefabInternal: {fileID: 100100000}
  serializedVersion: 5
  m_Component:
  - component: {fileID: 496010}
  - component: {fileID: 21236932}
  - component: {fileID: 9565954}
  - component: {fileID: 114495919089510632}
  - component: {fileID: 114561318879827856}
  - component: {fileID: 114577379198933056}
  - component: {fileID: 114632483858848978}
  - component: {fileID: 114174584248601092}
  m_Layer: 0
  m_Name: Glass cell 1
  m_TagString: Untagged
  m_Icon: {fileID: 0}
  m_NavMeshLayer: 0
  m_StaticEditorFlags: 0
  m_IsActive: 1
--- !u!4 &496010
Transform:
  m_ObjectHideFlags: 1
  m_PrefabParentObject: {fileID: 0}
  m_PrefabInternal: {fileID: 100100000}
  m_GameObject: {fileID: 136582}
  m_LocalRotation: {x: 0, y: 0, z: 0, w: 1}
  m_LocalPosition: {x: -0.9269351, y: -1.9586422, z: 0}
  m_LocalScale: {x: 1, y: 1, z: 1}
  m_Children: []
  m_Father: {fileID: 0}
  m_RootOrder: 0
  m_LocalEulerAnglesHint: {x: 0, y: 0, z: 0}
--- !u!95 &9565954
Animator:
  serializedVersion: 3
  m_ObjectHideFlags: 1
  m_PrefabParentObject: {fileID: 0}
  m_PrefabInternal: {fileID: 100100000}
  m_GameObject: {fileID: 136582}
  m_Enabled: 0
  m_Avatar: {fileID: 0}
  m_Controller: {fileID: 9100000, guid: c32dc1e7ead6f7f459ebd3495594083a, type: 2}
  m_CullingMode: 0
  m_UpdateMode: 0
  m_ApplyRootMotion: 0
  m_LinearVelocityBlending: 0
  m_WarningMessage: 
  m_HasTransformHierarchy: 1
  m_AllowConstantClipSamplingOptimization: 1
--- !u!212 &21236932
SpriteRenderer:
  m_ObjectHideFlags: 1
  m_PrefabParentObject: {fileID: 0}
  m_PrefabInternal: {fileID: 100100000}
  m_GameObject: {fileID: 136582}
  m_Enabled: 1
  m_CastShadows: 0
  m_ReceiveShadows: 0
  m_MotionVectors: 1
  m_LightProbeUsage: 0
  m_ReflectionProbeUsage: 0
  m_Materials:
  - {fileID: 10754, guid: 0000000000000000f000000000000000, type: 0}
  m_StaticBatchInfo:
    firstSubMesh: 0
    subMeshCount: 0
  m_StaticBatchRoot: {fileID: 0}
  m_ProbeAnchor: {fileID: 0}
  m_LightProbeVolumeOverride: {fileID: 0}
  m_ScaleInLightmap: 1
  m_PreserveUVs: 0
  m_IgnoreNormalsForChartDetection: 0
  m_ImportantGI: 0
  m_SelectedEditorRenderState: 0
  m_MinimumChartSize: 4
  m_AutoUVMaxDistance: 0.5
  m_AutoUVMaxAngle: 89
  m_LightmapParameters: {fileID: 0}
  m_SortingLayerID: -1343669637
  m_SortingLayer: 2
  m_SortingOrder: 1
  m_Sprite: {fileID: 21300378, guid: 12b899fa8ee8b7f4b92a74630c9e5888, type: 3}
  m_Color: {r: 1, g: 1, b: 1, a: 1}
  m_FlipX: 0
  m_FlipY: 0
  m_DrawMode: 0
  m_Size: {x: 1, y: 1}
  m_AdaptiveModeThreshold: 0.5
  m_SpriteTileMode: 0
  m_WasSpriteAssigned: 1
  m_MaskInteraction: 0
--- !u!1001 &100100000
Prefab:
  m_ObjectHideFlags: 1
  serializedVersion: 2
  m_Modification:
    m_TransformParent: {fileID: 0}
    m_Modifications: []
    m_RemovedComponents: []
  m_ParentPrefab: {fileID: 0}
  m_RootGameObject: {fileID: 136582}
  m_IsPrefabParent: 1
--- !u!114 &114174584248601092
MonoBehaviour:
  m_ObjectHideFlags: 1
  m_PrefabParentObject: {fileID: 0}
  m_PrefabInternal: {fileID: 100100000}
  m_GameObject: {fileID: 136582}
  m_Enabled: 1
  m_EditorHideFlags: 0
  m_Script: {fileID: 1456307246, guid: 6fa733cee29e1c54b8eb76455f80ead9, type: 3}
  m_Name: 
  m_EditorClassIdentifier: 
  clips:
  - tokenEvent: 8
    clip: {fileID: 8300000, guid: 2d6956c3893a1c947bb9b19d48939bde, type: 3}
  - tokenEvent: 16
    clip: {fileID: 8300000, guid: 785160e9aae111b48a1d11a51c36e642, type: 3}
--- !u!114 &114495919089510632
MonoBehaviour:
  m_ObjectHideFlags: 1
  m_PrefabParentObject: {fileID: 0}
  m_PrefabInternal: {fileID: 100100000}
  m_GameObject: {fileID: 136582}
  m_Enabled: 1
  m_EditorHideFlags: 0
  m_Script: {fileID: -2065983098, guid: 6fa733cee29e1c54b8eb76455f80ead9, type: 3}
  m_Name: 
  m_EditorClassIdentifier: 
  canAvoidObstacles: 1
--- !u!114 &114561318879827856
MonoBehaviour:
  m_ObjectHideFlags: 1
  m_PrefabParentObject: {fileID: 0}
  m_PrefabInternal: {fileID: 100100000}
  m_GameObject: {fileID: 136582}
  m_Enabled: 1
  m_EditorHideFlags: 0
  m_Script: {fileID: 1362702109, guid: 6fa733cee29e1c54b8eb76455f80ead9, type: 3}
  m_Name: 
  m_EditorClassIdentifier: 
  durability: 2
  order: 0
  graphics: {fileID: 0}
  animation: {fileID: 114632483858848978}
--- !u!114 &114577379198933056
MonoBehaviour:
  m_ObjectHideFlags: 1
  m_PrefabParentObject: {fileID: 0}
  m_PrefabInternal: {fileID: 100100000}
  m_GameObject: {fileID: 136582}
  m_Enabled: 1
  m_EditorHideFlags: 0
  m_Script: {fileID: -1871365280, guid: 6fa733cee29e1c54b8eb76455f80ead9, type: 3}
  m_Name: 
  m_EditorClassIdentifier: 
  sprite: {fileID: 21300378, guid: 12b899fa8ee8b7f4b92a74630c9e5888, type: 3}
  editorSprite: {fileID: 0}
  sortingLayerName: Tokens
  packing: 0
  landingObject: {fileID: 0}
  baseObject: {fileID: 0}
  path: 
--- !u!114 &114632483858848978
MonoBehaviour:
  m_ObjectHideFlags: 1
  m_PrefabParentObject: {fileID: 0}
  m_PrefabInternal: {fileID: 100100000}
  m_GameObject: {fileID: 136582}
  m_Enabled: 1
  m_EditorHideFlags: 0
  m_Script: {fileID: -1997967283, guid: 6fa733cee29e1c54b8eb76455f80ead9, type: 3}
  m_Name: 
  m_EditorClassIdentifier: 
  graphics: {fileID: 0}
  path: 
  controller: {fileID: 9100000, guid: c32dc1e7ead6f7f459ebd3495594083a, type: 2}
  length: 0.3
  trigger: Destroyed
  particlePrefab: {fileID: 0}
