%YAML 1.1
%TAG !u! tag:unity3d.com,2011:
--- !u!1001 &100100000
Prefab:
  m_ObjectHideFlags: 1
  serializedVersion: 2
  m_Modification:
    m_TransformParent: {fileID: 0}
    m_Modifications: []
    m_RemovedComponents: []
  m_ParentPrefab: {fileID: 0}
  m_RootGameObject: {fileID: 1000011949125606}
  m_IsPrefabParent: 1
--- !u!1 &1000011949125606
GameObject:
  m_ObjectHideFlags: 0
  m_PrefabParentObject: {fileID: 0}
  m_PrefabInternal: {fileID: 100100000}
  serializedVersion: 5
  m_Component:
  - component: {fileID: 4000014283879816}
  - component: {fileID: 212000012412948936}
  - component: {fileID: 95000010145548644}
  - component: {fileID: 61000011983828138}
  - component: {fileID: 114120508303374454}
  - component: {fileID: 114706187122472964}
  - component: {fileID: 114711120531827980}
  - component: {fileID: 114942142230314752}
  - component: {fileID: 114340628874591534}
  - component: {fileID: 114433566369759708}
  - component: {fileID: 114696073795504906}
  m_Layer: 0
  m_Name: Random token
  m_TagString: Untagged
  m_Icon: {fileID: 0}
  m_NavMeshLayer: 0
  m_StaticEditorFlags: 0
  m_IsActive: 1
--- !u!4 &4000014283879816
Transform:
  m_ObjectHideFlags: 1
  m_PrefabParentObject: {fileID: 0}
  m_PrefabInternal: {fileID: 100100000}
  m_GameObject: {fileID: 1000011949125606}
  m_LocalRotation: {x: 0, y: 0, z: 0, w: 1}
  m_LocalPosition: {x: -21.29075, y: -1.0332129, z: 0}
  m_LocalScale: {x: 1, y: 1, z: 1}
  m_Children: []
  m_Father: {fileID: 0}
  m_RootOrder: 0
  m_LocalEulerAnglesHint: {x: 0, y: 0, z: 0}
--- !u!61 &61000011983828138
BoxCollider2D:
  m_ObjectHideFlags: 1
  m_PrefabParentObject: {fileID: 0}
  m_PrefabInternal: {fileID: 100100000}
  m_GameObject: {fileID: 1000011949125606}
  m_Enabled: 1
  m_Density: 1
  m_Material: {fileID: 0}
  m_IsTrigger: 0
  m_UsedByEffector: 0
  m_UsedByComposite: 0
  m_Offset: {x: 0, y: 0}
  m_SpriteTilingProperty:
    border: {x: 0, y: 0, z: 0, w: 0}
    pivot: {x: 0.5, y: 0.5}
    oldSize: {x: 0.8, y: 0.8}
    newSize: {x: 1, y: 1}
    adaptiveTilingThreshold: 0.5
    drawMode: 0
    adaptiveTiling: 0
  m_AutoTiling: 0
  serializedVersion: 2
  m_Size: {x: 0.45, y: 0.45}
  m_EdgeRadius: 0
--- !u!95 &95000010145548644
Animator:
  serializedVersion: 3
  m_ObjectHideFlags: 1
  m_PrefabParentObject: {fileID: 0}
  m_PrefabInternal: {fileID: 100100000}
  m_GameObject: {fileID: 1000011949125606}
  m_Enabled: 0
  m_Avatar: {fileID: 0}
  m_Controller: {fileID: 9100000, guid: 400aa88d4d3d6a243aacd131652c3a44, type: 2}
  m_CullingMode: 0
  m_UpdateMode: 0
  m_ApplyRootMotion: 0
  m_LinearVelocityBlending: 0
  m_WarningMessage: 
  m_HasTransformHierarchy: 1
  m_AllowConstantClipSamplingOptimization: 1
--- !u!114 &114120508303374454
MonoBehaviour:
  m_ObjectHideFlags: 1
  m_PrefabParentObject: {fileID: 0}
  m_PrefabInternal: {fileID: 100100000}
  m_GameObject: {fileID: 1000011949125606}
  m_Enabled: 1
  m_EditorHideFlags: 0
  m_Script: {fileID: 1415450470, guid: 6fa733cee29e1c54b8eb76455f80ead9, type: 3}
  m_Name: 
  m_EditorClassIdentifier: 
  durability: 1
  order: 0
  graphics: {fileID: 0}
  animation: {fileID: 114696073795504906}
--- !u!114 &114340628874591534
MonoBehaviour:
  m_ObjectHideFlags: 1
  m_PrefabParentObject: {fileID: 0}
  m_PrefabInternal: {fileID: 100100000}
  m_GameObject: {fileID: 1000011949125606}
  m_Enabled: 1
  m_EditorHideFlags: 0
  m_Script: {fileID: -1341227839, guid: 6fa733cee29e1c54b8eb76455f80ead9, type: 3}
  m_Name: 
  m_EditorClassIdentifier: 
--- !u!114 &114433566369759708
MonoBehaviour:
  m_ObjectHideFlags: 1
  m_PrefabParentObject: {fileID: 0}
  m_PrefabInternal: {fileID: 100100000}
  m_GameObject: {fileID: 1000011949125606}
  m_Enabled: 1
  m_EditorHideFlags: 0
  m_Script: {fileID: 1456307246, guid: 6fa733cee29e1c54b8eb76455f80ead9, type: 3}
  m_Name: 
  m_EditorClassIdentifier: 
  clips: []
--- !u!114 &114696073795504906
MonoBehaviour:
  m_ObjectHideFlags: 1
  m_PrefabParentObject: {fileID: 0}
  m_PrefabInternal: {fileID: 100100000}
  m_GameObject: {fileID: 1000011949125606}
  m_Enabled: 1
  m_EditorHideFlags: 0
  m_Script: {fileID: -1997967283, guid: 6fa733cee29e1c54b8eb76455f80ead9, type: 3}
  m_Name: 
  m_EditorClassIdentifier: 
  graphics: {fileID: 114711120531827980}
  path: 
  controller: {fileID: 9100000, guid: 400aa88d4d3d6a243aacd131652c3a44, type: 2}
  length: 0.375
  trigger: Destroyed
  particlePrefab: {fileID: 0}
--- !u!114 &114706187122472964
MonoBehaviour:
  m_ObjectHideFlags: 1
  m_PrefabParentObject: {fileID: 0}
  m_PrefabInternal: {fileID: 100100000}
  m_GameObject: {fileID: 1000011949125606}
  m_Enabled: 1
  m_EditorHideFlags: 0
  m_Script: {fileID: 1238389487, guid: 6fa733cee29e1c54b8eb76455f80ead9, type: 3}
  m_Name: 
  m_EditorClassIdentifier: 
  color: 7
--- !u!114 &114711120531827980
MonoBehaviour:
  m_ObjectHideFlags: 1
  m_PrefabParentObject: {fileID: 0}
  m_PrefabInternal: {fileID: 100100000}
  m_GameObject: {fileID: 1000011949125606}
  m_Enabled: 1
  m_EditorHideFlags: 0
  m_Script: {fileID: -1871365280, guid: 6fa733cee29e1c54b8eb76455f80ead9, type: 3}
  m_Name: 
  m_EditorClassIdentifier: 
  sprite: {fileID: 0}
  editorSprite: {fileID: 21300000, guid: daa6aaf36274d63438d7ac0fd15a421c, type: 3}
  sortingLayerName: Tokens
  packing: 0
  landingObject: {fileID: 1000011949125606}
  baseObject: {fileID: 1000011949125606}
  path: 
--- !u!114 &114942142230314752
MonoBehaviour:
  m_ObjectHideFlags: 1
  m_PrefabParentObject: {fileID: 0}
  m_PrefabInternal: {fileID: 100100000}
  m_GameObject: {fileID: 1000011949125606}
  m_Enabled: 1
  m_EditorHideFlags: 0
  m_Script: {fileID: -2065983098, guid: 6fa733cee29e1c54b8eb76455f80ead9, type: 3}
  m_Name: 
  m_EditorClassIdentifier: 
  canAvoidObstacles: 1
--- !u!212 &212000012412948936
SpriteRenderer:
  m_ObjectHideFlags: 1
  m_PrefabParentObject: {fileID: 0}
  m_PrefabInternal: {fileID: 100100000}
  m_GameObject: {fileID: 1000011949125606}
  m_Enabled: 1
  m_CastShadows: 0
  m_ReceiveShadows: 0
  m_MotionVectors: 1
  m_LightProbeUsage: 0
  m_ReflectionProbeUsage: 0
  m_Materials:
  - {fileID: 10754, guid: 0000000000000000f000000000000000, type: 0}
  m_StaticBatchInfo:
    firstSubMesh: 0
    subMeshCount: 0
  m_StaticBatchRoot: {fileID: 0}
  m_ProbeAnchor: {fileID: 0}
  m_LightProbeVolumeOverride: {fileID: 0}
  m_ScaleInLightmap: 1
  m_PreserveUVs: 0
  m_IgnoreNormalsForChartDetection: 0
  m_ImportantGI: 0
  m_SelectedEditorRenderState: 0
  m_MinimumChartSize: 4
  m_AutoUVMaxDistance: 0.5
  m_AutoUVMaxAngle: 89
  m_LightmapParameters: {fileID: 0}
  m_SortingLayerID: 712495007
  m_SortingLayer: 3
  m_SortingOrder: 1
  m_Sprite: {fileID: 0}
  m_Color: {r: 1, g: 1, b: 1, a: 1}
  m_FlipX: 0
  m_FlipY: 0
  m_DrawMode: 0
  m_Size: {x: 1, y: 1}
  m_AdaptiveModeThreshold: 0.5
  m_SpriteTileMode: 0
  m_WasSpriteAssigned: 0
  m_MaskInteraction: 0
